%YAML 1.1
%TAG !u! tag:unity3d.com,2011:
--- !u!78 &1
TagManager:
  serializedVersion: 2
  tags:
  - Obiettivi
  - Controller
  - Muro
  - Agente
  - Target
  layers:
  - Default
  - TransparentFX
  - Ignore Raycast
  - 
  - Water
  - UI
  - 
  - 
  - Muro
  - 
  - 
  - Agente
  - Agent Collision Blocker
  - 
  - 
  - 
  - 
  - TargetFine1
  - TargetFine2
  - TargetFine3
  - TargetFine4
  - TargetMid1
  - TargetMid2
  - TargetMid3
  - TargetMid4
  - 
  - 
  - 
  - 
  - 
  - 
  - 
  m_SortingLayers:
  - name: Default
    uniqueID: 0
    locked: 0
